…
A subset of the example output is shown below:

    #*insert plot here*

### 3) Preparing data for PheWAS

Join the patient genotype data to the boolean phenotypes generated by
the createPedPhenotypes() function to create the data frame needed to
perform PheWAS. If planning to adjust for covariates (e.g., age,
gender), these should also be joined to the data frame.

    df_full <- dplyr::inner_join(example_data_genotypes, ped_phenotypes, by = "id")
    df_full

    ## # A tibble: 5,000 × 2,009
    ##       id rs_example `008` `008.5` `008.51` `008.511` `008.512` `008.513` `008.514` `008.515` `008.516`
    ##    <int>      <int> <lgl> <lgl>   <lgl>    <lgl>     <lgl>     <lgl>     <lgl>     <lgl>     <lgl>    
    ##  1     1          1 FALSE FALSE   FALSE    FALSE     FALSE     FALSE     FALSE     FALSE     FALSE    
    ##  2     2          0 FALSE FALSE   FALSE    FALSE     FALSE     FALSE     FALSE     FALSE     FALSE    
    ##  3     3          1 FALSE FALSE   FALSE    FALSE     FALSE     FALSE     FALSE     FALSE     FALSE    
    ##  4     4          1 FALSE FALSE   FALSE    FALSE     FALSE     FALSE     FALSE     FALSE     FALSE    
    ##  5     5          1 FALSE FALSE   FALSE    FALSE     FALSE     FALSE     FALSE     FALSE     FALSE    
    ##  6     6          1 FALSE FALSE   FALSE    FALSE     FALSE     FALSE     FALSE     FALSE     FALSE    
    ##  7     7          1 FALSE FALSE   FALSE    FALSE     FALSE     FALSE     FALSE     FALSE     FALSE    
    ##  8     8          1 FALSE FALSE   FALSE    FALSE     FALSE     FALSE     FALSE     FALSE     FALSE    
    ##  9     9          2 FALSE FALSE   FALSE    FALSE     FALSE     FALSE     FALSE     FALSE     FALSE    
    ## 10    10          1 FALSE FALSE   FALSE    FALSE     FALSE     FALSE     FALSE     FALSE     FALSE    
    ## # ℹ 4,990 more rows
    ## # ℹ 1,998 more variables: `008.52` <lgl>, `008.6` <lgl>, `008.7` <lgl>, `010` <lgl>, `031` <lgl>,
    ## #   `031.1` <lgl>, `038` <lgl>, `038.1` <lgl>, `038.2` <lgl>, `038.3` <lgl>, `041` <lgl>,
    ## #   `041.1` <lgl>, `041.11` <lgl>, `041.12` <lgl>, `041.2` <lgl>, `041.21` <lgl>, `041.4` <lgl>,
    ## #   `041.8` <lgl>, `041.9` <lgl>, `053` <lgl>, `054` <lgl>, `070` <lgl>, `070.1` <lgl>, `070.2` <lgl>,
    ## #   `070.3` <lgl>, `070.4` <lgl>, `070.9` <lgl>, `071` <lgl>, `071.1` <lgl>, `078` <lgl>, `079` <lgl>,
    ## #   `079.1` <lgl>, `079.2` <lgl>, `079.3` <lgl>, `079.4` <lgl>, `079.5` <lgl>, `079.6` <lgl>, …
…
